%YAML 1.1
%TAG !u! tag:unity3d.com,2011:
--- !u!21 &2100000
Material:
  serializedVersion: 6
  m_ObjectHideFlags: 0
  m_CorrespondingSourceObject: {fileID: 0}
  m_PrefabInternal: {fileID: 0}
  m_Name: M_nettle_01_VS
  m_Shader: {fileID: 4800000, guid: 839bdc3011e43e34683d62152d2a10dc, type: 3}
  m_ShaderKeywords: _ALPHATEST_ON _METALLICGLOSSMAP _NORMALMAP _WIND_VERTEXCOLORR_ON
  m_LightmapFlags: 4
  m_EnableInstancingVariants: 1
  m_DoubleSidedGI: 0
  m_CustomRenderQueue: -1
  stringTagMap: {}
  disabledShaderPasses: []
  m_SavedProperties:
    serializedVersion: 3
    m_TexEnvs:
    - <noninit>:
        m_Texture: {fileID: 2800000, guid: d77bbe1919867b049b3b15ec7afc604a, type: 3}
        m_Scale: {x: 1, y: 1}
        m_Offset: {x: 0, y: 0}
    - _AmbientOcclusionG:
        m_Texture: {fileID: 2800000, guid: 81d6cad6a44c912469ca859b551ea2be, type: 3}
        m_Scale: {x: 1, y: 1}
        m_Offset: {x: 0, y: 0}
    - _BumpMap:
        m_Texture: {fileID: 2800000, guid: 988098b96c363b748bd28124f9636650, type: 3}
        m_Scale: {x: 1, y: 1}
        m_Offset: {x: 0, y: 0}
    - _MainTex:
        m_Texture: {fileID: 2800000, guid: befa22a846c222b45bf761b83c726160, type: 3}
        m_Scale: {x: 1, y: 1}
        m_Offset: {x: 0, y: 0}
    - _WindNoise:
        m_Texture: {fileID: 2800000, guid: cdec882b86a6f9b46b4c79d6a9891f1c, type: 3}
        m_Scale: {x: 1, y: 1}
        m_Offset: {x: 0, y: 0}
    - _texcoord:
        m_Texture: {fileID: 0}
        m_Scale: {x: 1, y: 1}
        m_Offset: {x: 0, y: 0}
    m_Floats:
    - <noninit>: 1
    - _AmbientOcclusionPower: 1
    - _BackFaceMirrorNormal: 1
    - _BumpScale: 1
    - _ColorNoiseSpread: 15
    - _CullFarDistance: 5
    - _CullFarStart: 60
    - _Cutoff: 0.5
    - _Drag: 60
    - _InitialBend: 1
    - _MaskClipValue: 0.3
    - _MaxWindbending: 1
    - _NoiseWindSpeed: 0.85
    - _ShiverDirectionality: 0.5
    - _ShiverDrag: 0.005
    - _SmoothnessPower: 1
    - _Stiffness: 1
    - _WindColorThreshold: 0.3
    - _WindNoisePower: 3
    - _WindNormalInfluence: 0.2
    - _WindPowerDirectionX: 1
    - _WindPowerDirectionZ: 1
    - _Wind_VertexColorR: 1
    - __dirty: 0
    m_Colors:
    - <noninit>: {r: 1, g: 1, b: 1, a: 1}
    - _Color: {r: 1, g: 1, b: 1, a: 0}
    - _DryColor: {r: 0.8602941, g: 0.8221653, b: 0.740106, a: 1}
    - _HealthyColor: {r: 1, g: 1, b: 1, a: 1}
    - _NewNormal: {r: 0, g: 0, b: 0, a: 0}
    - _WindColorInfluence: {r: 0.5, g: 0.5, b: 0.5, a: 0}
    - _WindColorMultiply: {r: 1.4, g: 1.4, b: 1.4, a: 0}
    - _WindNoisetilling: {r: 0.007, g: 0.007, b: 0, a: 0}
