%YAML 1.1
%TAG !u! tag:unity3d.com,2011:
--- !u!114 &11400000
MonoBehaviour:
  m_ObjectHideFlags: 0
  m_CorrespondingSourceObject: {fileID: 0}
  m_PrefabInternal: {fileID: 0}
  m_GameObject: {fileID: 0}
  m_Enabled: 1
  m_EditorHideFlags: 0
  m_Script: {fileID: 11500000, guid: 329dca3bf78fcdd42b2df941673db76f, type: 3}
  m_Name: BlendShape
  m_EditorClassIdentifier: 
  Clips:
  - {fileID: 11400000, guid: 0591550d9cef4ef4c985c672d132aa31, type: 2}
  - {fileID: 11400000, guid: 5ffba73afc6de2b47bfa5e6cac839c93, type: 2}
  - {fileID: 11400000, guid: 54e9062790d67264ca3e07c9a5afbe07, type: 2}
  - {fileID: 11400000, guid: 6b9f04eba56ba3949b4ffba06d3d92d7, type: 2}
  - {fileID: 11400000, guid: 1c8298d7cae41914ea7ae66efc31f37e, type: 2}
  - {fileID: 11400000, guid: 903a144a690ce6d4c8b7c0d40a9c33c8, type: 2}
  - {fileID: 11400000, guid: 2f67e5b4496d3ad4eb7119bffefdaba9, type: 2}
  - {fileID: 11400000, guid: bd3bd6d5221b6534f928c26ca6fefb36, type: 2}
  - {fileID: 11400000, guid: 871d3a4a13137eb4d970c812fb0fced3, type: 2}
  - {fileID: 11400000, guid: 975c2f2085caf6e4eaca117fc9025041, type: 2}
  - {fileID: 11400000, guid: 7496deb0af100ba4e866a747f0d7332d, type: 2}
  - {fileID: 11400000, guid: 0906da4cc8613e342870dd83c2c44592, type: 2}
  - {fileID: 11400000, guid: a1408db378cf68747ba67fd1b1f87435, type: 2}
  - {fileID: 11400000, guid: 446a5e03a828eae4785e74ffd33f5f21, type: 2}
  - {fileID: 11400000, guid: 944e5e625f6ed824ab499d5cee2edf24, type: 2}
  - {fileID: 11400000, guid: 5c48fda53fbf0db40906e27f8fd15679, type: 2}
  - {fileID: 11400000, guid: e9af95560cb9b8947ae0c26ec9d26007, type: 2}
