%YAML 1.1
%TAG !u! tag:unity3d.com,2011:
--- !u!21 &2100000
Material:
  serializedVersion: 6
  m_ObjectHideFlags: 0
  m_CorrespondingSourceObject: {fileID: 0}
  m_PrefabInternal: {fileID: 0}
  m_Name: M_clover_01_VS_Light
  m_Shader: {fileID: 4800000, guid: 14642f160589e354db97395ba4bdc651, type: 3}
  m_ShaderKeywords: FAR_CULL_ON TOUCH_BEND_ON _ALPHATEST_ON _METALLICGLOSSMAP _NORMALMAP
    _WIND_VERTEXCOLORR_ON
  m_LightmapFlags: 4
  m_EnableInstancingVariants: 1
  m_DoubleSidedGI: 0
  m_CustomRenderQueue: -1
  stringTagMap: {}
  disabledShaderPasses: []
  m_SavedProperties:
    serializedVersion: 3
    m_TexEnvs:
    - <noninit>:
        m_Texture: {fileID: 2800000, guid: 3ed30b511d8a69249840e265fb9a97d7, type: 3}
        m_Scale: {x: 1, y: 1}
        m_Offset: {x: 0, y: 0}
    - _AG_ColorNoiseTex:
        m_Texture: {fileID: 2800000, guid: cdec882b86a6f9b46b4c79d6a9891f1c, type: 3}
        m_Scale: {x: 1, y: 1}
        m_Offset: {x: 0, y: 0}
    - _AmbientOcclusionG:
        m_Texture: {fileID: 2800000, guid: 0df77bc22204f174da14bf9ded377ef5, type: 3}
        m_Scale: {x: 1, y: 1}
        m_Offset: {x: 0, y: 0}
    - _BumpMap:
        m_Texture: {fileID: 2800000, guid: 3b0e88744c5313a418f476970082ac30, type: 3}
        m_Scale: {x: 1, y: 1}
        m_Offset: {x: 0, y: 0}
    - _MainTex:
        m_Texture: {fileID: 2800000, guid: d92a0f107ed6632478fe20f543a21712, type: 3}
        m_Scale: {x: 1, y: 1}
        m_Offset: {x: 0, y: 0}
    - _WindNoise:
        m_Texture: {fileID: 2800000, guid: cdec882b86a6f9b46b4c79d6a9891f1c, type: 3}
        m_Scale: {x: 1, y: 1}
        m_Offset: {x: 0, y: 0}
    - _texcoord:
        m_Texture: {fileID: 0}
        m_Scale: {x: 1, y: 1}
        m_Offset: {x: 0, y: 0}
    m_Floats:
    - <noninit>: 1
    - FAR_CULL: 1
    - TOUCH_BEND: 1
    - _AmbientOcclusionPower: 1
    - _BackFaceMirrorNormal: 1
    - _BumpScale: 1
    - _ColorNoiseSpread: 15
    - _CullFarDistance: 5
    - _CullFarStart: 60
    - _Cutoff: 0.5
    - _Drag: 1
    - _InitialBend: 1
    - _MaskClipValue: 0.3
    - _MaxWindbending: 0.32
    - _NoiseWindSpeed: 0.85
    - _RandomDarkening: 0.5
    - _RootAmbient: 0.5
    - _ShiverDirectionality: 0.742
    - _ShiverDrag: 0.005
    - _SmoothnessPower: 0
    - _Speed: 5
    - _Stiffness: 1
    - _WavesSpeed: 1
    - _Wetness: 0
    - _WindAffectDistance: 20
    - _WindColorThreshold: 0.3
    - _WindNoisePower: 3
    - _WindNormalInfluence: 0.2
    - _WindPowerDirectionX: 1
    - _WindPowerDirectionZ: 1
    - _Wind_VertexColorR: 1
    - __dirty: 0
    m_Colors:
    - <noninit>: {r: 1, g: 1, b: 1, a: 1}
    - _AG_ColorNoiseArea: {r: 0, g: 0, b: 0, a: 1}
    - _Color: {r: 1, g: 1, b: 1, a: 0}
    - _ColorB: {r: 0.83823526, g: 0.83823526, b: 0.83823526, a: 1}
    - _DryColor: {r: 0.8602941, g: 0.8221653, b: 0.740106, a: 1}
    - _HealthyColor: {r: 1, g: 1, b: 1, a: 1}
    - _NewNormal: {r: 1, g: 1.5, b: 1, a: 0}
    - _WindColorInfluence: {r: 0.5, g: 0.5, b: 0.5, a: 0}
    - _WindColorMultiply: {r: 1.4, g: 1.4, b: 1.4, a: 0}
    - _WindNoisetilling: {r: 0.007, g: 0.007, b: 0, a: 0}
