%YAML 1.1
%TAG !u! tag:unity3d.com,2011:
--- !u!114 &11400000
MonoBehaviour:
  m_ObjectHideFlags: 0
  m_CorrespondingSourceObject: {fileID: 0}
  m_PrefabInternal: {fileID: 0}
  m_GameObject: {fileID: 0}
  m_Enabled: 1
  m_EditorHideFlags: 0
  m_Script: {fileID: 11500000, guid: 37562b39ff933b245ac2f35d87edbcd6, type: 3}
  m_Name: BlendShape.Blink_L
  m_EditorClassIdentifier: 
  m_prefab: {fileID: 0}
  BlendShapeName: Blink_L
  Preset: 16
  Values:
  - RelativePath: "\u767D\u76EE"
    Index: 5
    Weight: 100
  - RelativePath: "\u76EE\u5F71"
    Index: 5
    Weight: 100
  - RelativePath: "\u982D.001"
    Index: 25
    Weight: 100
  - RelativePath: "\u9854"
    Index: 5
    Weight: 100
  MaterialValues: []
