%YAML 1.1
%TAG !u! tag:unity3d.com,2011:
--- !u!114 &11400000
MonoBehaviour:
  m_ObjectHideFlags: 0
  m_CorrespondingSourceObject: {fileID: 0}
  m_PrefabInternal: {fileID: 0}
  m_GameObject: {fileID: 0}
  m_Enabled: 1
  m_EditorHideFlags: 0
  m_Script: {fileID: 11500000, guid: 37562b39ff933b245ac2f35d87edbcd6, type: 3}
  m_Name: BlendShape.O
  m_EditorClassIdentifier: 
  m_prefab: {fileID: 0}
  BlendShapeName: O
  Preset: 6
  Values:
  - RelativePath: "\u53E3\u5185"
    Index: 4
    Weight: 100
  - RelativePath: "\u6B6F"
    Index: 4
    Weight: 100
  - RelativePath: "\u982D.001"
    Index: 4
    Weight: 100
  - RelativePath: "\u982D.001"
    Index: 19
    Weight: 14.7
  MaterialValues: []
