%YAML 1.1
%TAG !u! tag:unity3d.com,2011:
--- !u!114 &11400000
MonoBehaviour:
  m_ObjectHideFlags: 0
  m_CorrespondingSourceObject: {fileID: 0}
  m_PrefabInternal: {fileID: 0}
  m_GameObject: {fileID: 0}
  m_Enabled: 1
  m_EditorHideFlags: 0
  m_Script: {fileID: 11500000, guid: 37562b39ff933b245ac2f35d87edbcd6, type: 3}
  m_Name: BlendShape.Joy
  m_EditorClassIdentifier: 
  m_prefab: {fileID: 0}
  BlendShapeName: Joy
  Preset: 8
  Values:
  - RelativePath: "\u767D\u76EE"
    Index: 1
    Weight: 30
  - RelativePath: "\u76EE\u5F71"
    Index: 1
    Weight: 30
  - RelativePath: "\u982D.001"
    Index: 7
    Weight: 100
  - RelativePath: "\u982D.001"
    Index: 21
    Weight: 30
  - RelativePath: "\u9854"
    Index: 1
    Weight: 30
  - RelativePath: "\u9854"
    Index: 12
    Weight: 39.9
  - RelativePath: "\u9854"
    Index: 16
    Weight: 79.9
  MaterialValues: []
