%YAML 1.1
%TAG !u! tag:unity3d.com,2011:
--- !u!21 &2100000
Material:
  serializedVersion: 6
  m_ObjectHideFlags: 0
  m_PrefabParentObject: {fileID: 0}
  m_PrefabInternal: {fileID: 0}
  m_Name: M_Unity_Grass_nettle_01
  m_Shader: {fileID: 4800000, guid: 6e4ae4064600d784cac1e41a9e6f2e59, type: 3}
  m_ShaderKeywords: _ALPHATEST_ON _DISABLE_DBUFFER _DOUBLESIDED_ON _MASKMAP _MATERIAL_FEATURE_SUBSURFACE_SCATTERING
    _MATERIAL_FEATURE_TRANSMISSION _METALLICGLOSSMAP _NORMALMAP _NORMALMAP_TANGENT_SPACE
    _NORMALMAP_TANGENT_SPACE0 _NORMALMAP_TANGENT_SPACE1 _NORMALMAP_TANGENT_SPACE2
    _NORMALMAP_TANGENT_SPACE3 _THICKNESSMAP _VERTEX_WIND _WIND_VERTEXCOLORR_ON
  m_LightmapFlags: 4
  m_EnableInstancingVariants: 1
  m_DoubleSidedGI: 1
  m_CustomRenderQueue: 2450
  stringTagMap:
    RenderType: TransparentCutout
  disabledShaderPasses:
  - DistortionVectors
  - TransparentDepthPrepass
  - TransparentDepthPostpass
  - TransparentBackface
  - MOTIONVECTORS
  m_SavedProperties:
    serializedVersion: 3
    m_TexEnvs:
    - <noninit>:
        m_Texture: {fileID: 2800000, guid: d77bbe1919867b049b3b15ec7afc604a, type: 3}
        m_Scale: {x: 1, y: 1}
        m_Offset: {x: 0, y: 0}
    - _AmbientOcclusionG:
        m_Texture: {fileID: 2800000, guid: 81d6cad6a44c912469ca859b551ea2be, type: 3}
        m_Scale: {x: 1, y: 1}
        m_Offset: {x: 0, y: 0}
    - _AnisotropyMap:
        m_Texture: {fileID: 0}
        m_Scale: {x: 1, y: 1}
        m_Offset: {x: 0, y: 0}
    - _BaseColorMap:
        m_Texture: {fileID: 2800000, guid: befa22a846c222b45bf761b83c726160, type: 3}
        m_Scale: {x: 1, y: 1}
        m_Offset: {x: 0, y: 0}
    - _BaseColorMap0:
        m_Texture: {fileID: 0}
        m_Scale: {x: 1, y: 1}
        m_Offset: {x: 0, y: 0}
    - _BaseColorMap1:
        m_Texture: {fileID: 0}
        m_Scale: {x: 1, y: 1}
        m_Offset: {x: 0, y: 0}
    - _BaseColorMap2:
        m_Texture: {fileID: 0}
        m_Scale: {x: 1, y: 1}
        m_Offset: {x: 0, y: 0}
    - _BaseColorMap3:
        m_Texture: {fileID: 0}
        m_Scale: {x: 1, y: 1}
        m_Offset: {x: 0, y: 0}
    - _BentNormalMap:
        m_Texture: {fileID: 0}
        m_Scale: {x: 1, y: 1}
        m_Offset: {x: 0, y: 0}
    - _BentNormalMap0:
        m_Texture: {fileID: 0}
        m_Scale: {x: 1, y: 1}
        m_Offset: {x: 0, y: 0}
    - _BentNormalMap1:
        m_Texture: {fileID: 0}
        m_Scale: {x: 1, y: 1}
        m_Offset: {x: 0, y: 0}
    - _BentNormalMap2:
        m_Texture: {fileID: 0}
        m_Scale: {x: 1, y: 1}
        m_Offset: {x: 0, y: 0}
    - _BentNormalMap3:
        m_Texture: {fileID: 0}
        m_Scale: {x: 1, y: 1}
        m_Offset: {x: 0, y: 0}
    - _BentNormalMapOS:
        m_Texture: {fileID: 0}
        m_Scale: {x: 1, y: 1}
        m_Offset: {x: 0, y: 0}
    - _BentNormalMapOS0:
        m_Texture: {fileID: 0}
        m_Scale: {x: 1, y: 1}
        m_Offset: {x: 0, y: 0}
    - _BentNormalMapOS1:
        m_Texture: {fileID: 0}
        m_Scale: {x: 1, y: 1}
        m_Offset: {x: 0, y: 0}
    - _BentNormalMapOS2:
        m_Texture: {fileID: 0}
        m_Scale: {x: 1, y: 1}
        m_Offset: {x: 0, y: 0}
    - _BentNormalMapOS3:
        m_Texture: {fileID: 0}
        m_Scale: {x: 1, y: 1}
        m_Offset: {x: 0, y: 0}
    - _BumpMap:
        m_Texture: {fileID: 2800000, guid: 988098b96c363b748bd28124f9636650, type: 3}
        m_Scale: {x: 1, y: 1}
        m_Offset: {x: 0, y: 0}
    - _CoatMaskMap:
        m_Texture: {fileID: 0}
        m_Scale: {x: 1, y: 1}
        m_Offset: {x: 0, y: 0}
    - _DetailMap:
        m_Texture: {fileID: 0}
        m_Scale: {x: 1, y: 1}
        m_Offset: {x: 0, y: 0}
    - _DetailMap0:
        m_Texture: {fileID: 0}
        m_Scale: {x: 1, y: 1}
        m_Offset: {x: 0, y: 0}
    - _DetailMap1:
        m_Texture: {fileID: 0}
        m_Scale: {x: 1, y: 1}
        m_Offset: {x: 0, y: 0}
    - _DetailMap2:
        m_Texture: {fileID: 0}
        m_Scale: {x: 1, y: 1}
        m_Offset: {x: 0, y: 0}
    - _DetailMap3:
        m_Texture: {fileID: 0}
        m_Scale: {x: 1, y: 1}
        m_Offset: {x: 0, y: 0}
    - _DistortionVectorMap:
        m_Texture: {fileID: 0}
        m_Scale: {x: 1, y: 1}
        m_Offset: {x: 0, y: 0}
    - _EmissiveColorMap:
        m_Texture: {fileID: 0}
        m_Scale: {x: 1, y: 1}
        m_Offset: {x: 0, y: 0}
    - _HeightMap:
        m_Texture: {fileID: 0}
        m_Scale: {x: 1, y: 1}
        m_Offset: {x: 0, y: 0}
    - _HeightMap0:
        m_Texture: {fileID: 0}
        m_Scale: {x: 1, y: 1}
        m_Offset: {x: 0, y: 0}
    - _HeightMap1:
        m_Texture: {fileID: 0}
        m_Scale: {x: 1, y: 1}
        m_Offset: {x: 0, y: 0}
    - _HeightMap2:
        m_Texture: {fileID: 0}
        m_Scale: {x: 1, y: 1}
        m_Offset: {x: 0, y: 0}
    - _HeightMap3:
        m_Texture: {fileID: 0}
        m_Scale: {x: 1, y: 1}
        m_Offset: {x: 0, y: 0}
    - _IridescenceMaskMap:
        m_Texture: {fileID: 0}
        m_Scale: {x: 1, y: 1}
        m_Offset: {x: 0, y: 0}
    - _IridescenceThicknessMap:
        m_Texture: {fileID: 0}
        m_Scale: {x: 1, y: 1}
        m_Offset: {x: 0, y: 0}
    - _LayerInfluenceMaskMap:
        m_Texture: {fileID: 0}
        m_Scale: {x: 1, y: 1}
        m_Offset: {x: 0, y: 0}
    - _LayerMaskMap:
        m_Texture: {fileID: 0}
        m_Scale: {x: 1, y: 1}
        m_Offset: {x: 0, y: 0}
    - _MainTex:
        m_Texture: {fileID: 2800000, guid: befa22a846c222b45bf761b83c726160, type: 3}
        m_Scale: {x: 1, y: 1}
        m_Offset: {x: 0, y: 0}
    - _MaskMap:
        m_Texture: {fileID: 2800000, guid: 81d6cad6a44c912469ca859b551ea2be, type: 3}
        m_Scale: {x: 1, y: 1}
        m_Offset: {x: 0, y: 0}
    - _MaskMap0:
        m_Texture: {fileID: 0}
        m_Scale: {x: 1, y: 1}
        m_Offset: {x: 0, y: 0}
    - _MaskMap1:
        m_Texture: {fileID: 0}
        m_Scale: {x: 1, y: 1}
        m_Offset: {x: 0, y: 0}
    - _MaskMap2:
        m_Texture: {fileID: 0}
        m_Scale: {x: 1, y: 1}
        m_Offset: {x: 0, y: 0}
    - _MaskMap3:
        m_Texture: {fileID: 0}
        m_Scale: {x: 1, y: 1}
        m_Offset: {x: 0, y: 0}
    - _NormalMap:
        m_Texture: {fileID: 2800000, guid: 988098b96c363b748bd28124f9636650, type: 3}
        m_Scale: {x: 1, y: 1}
        m_Offset: {x: 0, y: 0}
    - _NormalMap0:
        m_Texture: {fileID: 0}
        m_Scale: {x: 1, y: 1}
        m_Offset: {x: 0, y: 0}
    - _NormalMap1:
        m_Texture: {fileID: 0}
        m_Scale: {x: 1, y: 1}
        m_Offset: {x: 0, y: 0}
    - _NormalMap2:
        m_Texture: {fileID: 0}
        m_Scale: {x: 1, y: 1}
        m_Offset: {x: 0, y: 0}
    - _NormalMap3:
        m_Texture: {fileID: 0}
        m_Scale: {x: 1, y: 1}
        m_Offset: {x: 0, y: 0}
    - _NormalMapOS:
        m_Texture: {fileID: 0}
        m_Scale: {x: 1, y: 1}
        m_Offset: {x: 0, y: 0}
    - _NormalMapOS0:
        m_Texture: {fileID: 0}
        m_Scale: {x: 1, y: 1}
        m_Offset: {x: 0, y: 0}
    - _NormalMapOS1:
        m_Texture: {fileID: 0}
        m_Scale: {x: 1, y: 1}
        m_Offset: {x: 0, y: 0}
    - _NormalMapOS2:
        m_Texture: {fileID: 0}
        m_Scale: {x: 1, y: 1}
        m_Offset: {x: 0, y: 0}
    - _NormalMapOS3:
        m_Texture: {fileID: 0}
        m_Scale: {x: 1, y: 1}
        m_Offset: {x: 0, y: 0}
    - _SpecularColorMap:
        m_Texture: {fileID: 0}
        m_Scale: {x: 1, y: 1}
        m_Offset: {x: 0, y: 0}
    - _SubsurfaceMaskMap:
        m_Texture: {fileID: 0}
        m_Scale: {x: 1, y: 1}
        m_Offset: {x: 0, y: 0}
    - _SubsurfaceMaskMap0:
        m_Texture: {fileID: 0}
        m_Scale: {x: 1, y: 1}
        m_Offset: {x: 0, y: 0}
    - _SubsurfaceMaskMap1:
        m_Texture: {fileID: 0}
        m_Scale: {x: 1, y: 1}
        m_Offset: {x: 0, y: 0}
    - _SubsurfaceMaskMap2:
        m_Texture: {fileID: 0}
        m_Scale: {x: 1, y: 1}
        m_Offset: {x: 0, y: 0}
    - _SubsurfaceMaskMap3:
        m_Texture: {fileID: 0}
        m_Scale: {x: 1, y: 1}
        m_Offset: {x: 0, y: 0}
    - _TangentMap:
        m_Texture: {fileID: 0}
        m_Scale: {x: 1, y: 1}
        m_Offset: {x: 0, y: 0}
    - _TangentMapOS:
        m_Texture: {fileID: 0}
        m_Scale: {x: 1, y: 1}
        m_Offset: {x: 0, y: 0}
    - _ThicknessMap:
        m_Texture: {fileID: 2800000, guid: 0d91f2846c457b64d9babdb4c48d6a60, type: 3}
        m_Scale: {x: 1, y: 1}
        m_Offset: {x: 0, y: 0}
    - _ThicknessMap0:
        m_Texture: {fileID: 0}
        m_Scale: {x: 1, y: 1}
        m_Offset: {x: 0, y: 0}
    - _ThicknessMap1:
        m_Texture: {fileID: 0}
        m_Scale: {x: 1, y: 1}
        m_Offset: {x: 0, y: 0}
    - _ThicknessMap2:
        m_Texture: {fileID: 0}
        m_Scale: {x: 1, y: 1}
        m_Offset: {x: 0, y: 0}
    - _ThicknessMap3:
        m_Texture: {fileID: 0}
        m_Scale: {x: 1, y: 1}
        m_Offset: {x: 0, y: 0}
    - _TransmittanceColorMap:
        m_Texture: {fileID: 0}
        m_Scale: {x: 1, y: 1}
        m_Offset: {x: 0, y: 0}
    - _WindNoise:
        m_Texture: {fileID: 2800000, guid: cdec882b86a6f9b46b4c79d6a9891f1c, type: 3}
        m_Scale: {x: 1, y: 1}
        m_Offset: {x: 0, y: 0}
    - _texcoord:
        m_Texture: {fileID: 0}
        m_Scale: {x: 1, y: 1}
        m_Offset: {x: 0, y: 0}
    m_Floats:
    - <noninit>: 1
    - _AORemapMax: 1
    - _AORemapMax0: 1
    - _AORemapMax1: 1
    - _AORemapMax2: 1
    - _AORemapMax3: 1
    - _AORemapMin: 0
    - _AORemapMin0: 0
    - _AORemapMin1: 0
    - _AORemapMin2: 0
    - _AORemapMin3: 0
    - _ATDistance: 1
    - _AlbedoAffectEmissive: 0
    - _AlphaCutoff: 0.45
    - _AlphaCutoffEnable: 1
    - _AlphaCutoffPostpass: 0.5
    - _AlphaCutoffPrepass: 0.5
    - _AmbientOcclusionPower: 1
    - _Anisotropy: 0
    - _BlendMode: 0
    - _BumpScale: 1
    - _CoatMask: 0
    - _CullFarDistance: 5
    - _CullFarStart: 60
    - _CullMode: 0
    - _CullModeForward: 0
    - _Cutoff: 0.45
    - _DepthOffsetEnable: 0
    - _DetailAlbedoScale: 1
    - _DetailAlbedoScale0: 1
    - _DetailAlbedoScale1: 1
    - _DetailAlbedoScale2: 1
    - _DetailAlbedoScale3: 1
    - _DetailNormalScale: 1
    - _DetailNormalScale0: 1
    - _DetailNormalScale1: 1
    - _DetailNormalScale2: 1
    - _DetailNormalScale3: 1
    - _DetailSmoothnessScale: 1
    - _DetailSmoothnessScale0: 1
    - _DetailSmoothnessScale1: 1
    - _DetailSmoothnessScale2: 1
    - _DetailSmoothnessScale3: 1
    - _DiffusionProfile: 2
    - _DiffusionProfile0: 0
    - _DiffusionProfile1: 0
    - _DiffusionProfile2: 0
    - _DiffusionProfile3: 0
    - _DisplacementLockObjectScale: 1
    - _DisplacementLockTilingScale: 1
    - _DisplacementMode: 0
    - _DistortionBlendMode: 0
    - _DistortionBlurBlendMode: 0
    - _DistortionBlurDstBlend: 1
    - _DistortionBlurRemapMax: 1
    - _DistortionBlurRemapMin: 0
    - _DistortionBlurScale: 1
    - _DistortionBlurSrcBlend: 1
    - _DistortionDepthTest: 1
    - _DistortionDstBlend: 1
    - _DistortionEnable: 0
    - _DistortionScale: 1
    - _DistortionSrcBlend: 1
    - _DistortionVectorBias: -1
    - _DistortionVectorScale: 2
    - _DoubleSidedEnable: 1
    - _DoubleSidedNormalMode: 1
    - _Drag: 60
    - _DstBlend: 0
    - _EmissiveColorMode: 1
    - _EmissiveIntensity: 0
    - _EnableBlendModePreserveSpecularLighting: 1
    - _EnableFogOnTransparent: 1
    - _EnableMotionVectorForVertexAnimation: 0
    - _EnableSpecularOcclusion: 0
    - _EnableWind: 1
    - _EnergyConservingSpecularColor: 1
    - _HeightAmplitude: 0.02
    - _HeightAmplitude0: 0.02
    - _HeightAmplitude1: 0.02
    - _HeightAmplitude2: 0.02
    - _HeightAmplitude3: 0.02
    - _HeightCenter: 0.5
    - _HeightCenter0: 0.5
    - _HeightCenter1: 0.5
    - _HeightCenter2: 0.5
    - _HeightCenter3: 0.5
    - _HeightMapParametrization: 0
    - _HeightMapParametrization0: 0
    - _HeightMapParametrization1: 0
    - _HeightMapParametrization2: 0
    - _HeightMapParametrization3: 0
    - _HeightMax: 1
    - _HeightMax0: 1
    - _HeightMax1: 1
    - _HeightMax2: 1
    - _HeightMax3: 1
    - _HeightMin: -1
    - _HeightMin0: -1
    - _HeightMin1: -1
    - _HeightMin2: -1
    - _HeightMin3: -1
    - _HeightOffset: 0
    - _HeightOffset0: 0
    - _HeightOffset1: 0
    - _HeightOffset2: 0
    - _HeightOffset3: 0
    - _HeightPoMAmplitude: 2
    - _HeightPoMAmplitude0: 2
    - _HeightPoMAmplitude1: 2
    - _HeightPoMAmplitude2: 2
    - _HeightPoMAmplitude3: 2
    - _HeightTessAmplitude: 2
    - _HeightTessAmplitude0: 2
    - _HeightTessAmplitude1: 2
    - _HeightTessAmplitude2: 2
    - _HeightTessAmplitude3: 2
    - _HeightTessCenter: 0.5
    - _HeightTessCenter0: 0.5
    - _HeightTessCenter1: 0.5
    - _HeightTessCenter2: 0.5
    - _HeightTessCenter3: 0.5
    - _HeightTransition: 0
    - _InheritBaseColor1: 0
    - _InheritBaseColor2: 0
    - _InheritBaseColor3: 0
    - _InheritBaseHeight1: 0
    - _InheritBaseHeight2: 0
    - _InheritBaseHeight3: 0
    - _InheritBaseNormal1: 0
    - _InheritBaseNormal2: 0
    - _InheritBaseNormal3: 0
    - _InitialBend: 1
    - _InvTilingScale: 1
    - _InvTilingScale0: 1
    - _InvTilingScale1: 1
    - _InvTilingScale2: 1
    - _InvTilingScale3: 1
    - _Ior: 1
    - _IridescenceMask: 1
    - _IridescenceThickness: 1
    - _LayerCount: 2
    - _LinkDetailsWithBase: 1
    - _LinkDetailsWithBase0: 1
    - _LinkDetailsWithBase1: 1
    - _LinkDetailsWithBase2: 1
    - _LinkDetailsWithBase3: 1
    - _MaskClipValue: 0.3
    - _MaterialID: 0
    - _MaxWindbending: 1
    - _Metallic: 0
    - _Metallic0: 0
    - _Metallic1: 0
    - _Metallic2: 0
    - _Metallic3: 0
    - _NoiseWindSpeed: 0.85
    - _NormalMapSpace: 0
    - _NormalMapSpace0: 0
    - _NormalMapSpace1: 0
    - _NormalMapSpace2: 0
    - _NormalMapSpace3: 0
    - _NormalScale: 1
    - _NormalScale0: 1
    - _NormalScale1: 1
    - _NormalScale2: 1
    - _NormalScale3: 1
    - _ObjectScaleAffectTile: 0
    - _OpacityAsDensity0: 0
    - _OpacityAsDensity1: 0
    - _OpacityAsDensity2: 0
    - _OpacityAsDensity3: 0
    - _PPDLodThreshold: 5
    - _PPDMaxSamples: 15
    - _PPDMinSamples: 5
    - _PPDPrimitiveLength: 1
    - _PPDPrimitiveWidth: 1
    - _PreRefractionPass: 0
    - _RefractionMode: 0
    - _ShiverDirectionality: 1
    - _ShiverDrag: 0.01
    - _ShowLayer0: 0
    - _ShowLayer1: 0
    - _ShowLayer2: 0
    - _ShowLayer3: 0
    - _ShowMaterialReferences: 0
    - _Smoothness: 1
    - _Smoothness0: 1
    - _Smoothness1: 1
    - _Smoothness2: 1
    - _Smoothness3: 1
    - _SmoothnessPower: 0
    - _SmoothnessRemapMax: 1
    - _SmoothnessRemapMax0: 1
    - _SmoothnessRemapMax1: 1
    - _SmoothnessRemapMax2: 1
    - _SmoothnessRemapMax3: 1
    - _SmoothnessRemapMin: 0
    - _SmoothnessRemapMin0: 0
    - _SmoothnessRemapMin1: 0
    - _SmoothnessRemapMin2: 0
    - _SmoothnessRemapMin3: 0
    - _SrcBlend: 1
    - _StencilRef: 1
    - _StencilRefMV: 128
    - _StencilWriteMask: 7
    - _StencilWriteMaskMV: 128
    - _Stiffness: 1
    - _SubsurfaceMask: 1
    - _SubsurfaceMask0: 1
    - _SubsurfaceMask1: 1
    - _SubsurfaceMask2: 1
    - _SubsurfaceMask3: 1
    - _SupportDBuffer: 0
    - _SurfaceType: 0
    - _TexWorldScale: 1
    - _TexWorldScale0: 1
    - _TexWorldScale1: 1
    - _TexWorldScale2: 1
    - _TexWorldScale3: 1
    - _TexWorldScaleBlendMask: 1
    - _TexWorldScaleEmissive: 1
    - _Thickness: 1
    - _Thickness0: 1
    - _Thickness1: 1
    - _Thickness2: 1
    - _Thickness3: 1
    - _ThicknessMultiplier: 1
    - _TransmissionEnable: 1
    - _TransparentBackfaceEnable: 0
    - _TransparentDepthPostpassEnable: 0
    - _TransparentDepthPrepassEnable: 0
    - _TransparentSortPriority: 0
    - _UVBase: 0
    - _UVBase0: 0
    - _UVBase1: 0
    - _UVBase2: 0
    - _UVBase3: 0
    - _UVBlendMask: 0
    - _UVDetail: 0
    - _UVDetail0: 0
    - _UVDetail1: 0
    - _UVDetail2: 0
    - _UVDetail3: 0
    - _UVEmissive: 0
    - _UseDensityMode: 0
    - _UseHeightBasedBlend: 0
    - _UseMainLayerInfluence: 0
    - _VertexColorMode: 0
    - _WindNoisePower: 3
    - _WindPowerDirectionX: 1
    - _WindPowerDirectionZ: 1
    - _Wind_VertexColorR: 1
    - _ZTestDepthEqualForOpaque: 3
    - _ZTestGBuffer: 3
    - _ZTestModeDistortion: 4
    - _ZWrite: 1
    - __dirty: 0
    m_Colors:
    - <noninit>: {r: 1, g: 1, b: 1, a: 1}
    - _BaseColor: {r: 1, g: 1, b: 1, a: 1}
    - _BaseColor0: {r: 1, g: 1, b: 1, a: 1}
    - _BaseColor1: {r: 1, g: 1, b: 1, a: 1}
    - _BaseColor2: {r: 1, g: 1, b: 1, a: 1}
    - _BaseColor3: {r: 1, g: 1, b: 1, a: 1}
    - _Color: {r: 1, g: 1, b: 1, a: 1}
    - _DoubleSidedConstants: {r: 1, g: 1, b: -1, a: 0}
    - _EmissionColor: {r: 1, g: 1, b: 1, a: 1}
    - _EmissiveColor: {r: 1, g: 1, b: 1, a: 1}
    - _InvPrimScale: {r: 1, g: 1, b: 0, a: 0}
    - _IridescenceThicknessRemap: {r: 0, g: 1, b: 0, a: 0}
    - _SpecularColor: {r: 1, g: 1, b: 1, a: 1}
    - _ThicknessRemap: {r: 0, g: 1, b: 0, a: 0}
    - _ThicknessRemap0: {r: 0, g: 1, b: 0, a: 0}
    - _ThicknessRemap1: {r: 0, g: 1, b: 0, a: 0}
    - _ThicknessRemap2: {r: 0, g: 1, b: 0, a: 0}
    - _ThicknessRemap3: {r: 0, g: 1, b: 0, a: 0}
    - _TransmittanceColor: {r: 1, g: 1, b: 1, a: 1}
    - _UVDetailsMappingMask: {r: 1, g: 0, b: 0, a: 0}
    - _UVDetailsMappingMask0: {r: 1, g: 0, b: 0, a: 0}
    - _UVDetailsMappingMask1: {r: 1, g: 0, b: 0, a: 0}
    - _UVDetailsMappingMask2: {r: 1, g: 0, b: 0, a: 0}
    - _UVDetailsMappingMask3: {r: 1, g: 0, b: 0, a: 0}
    - _UVMappingMask: {r: 1, g: 0, b: 0, a: 0}
    - _UVMappingMask0: {r: 1, g: 0, b: 0, a: 0}
    - _UVMappingMask1: {r: 1, g: 0, b: 0, a: 0}
    - _UVMappingMask2: {r: 1, g: 0, b: 0, a: 0}
    - _UVMappingMask3: {r: 1, g: 0, b: 0, a: 0}
    - _UVMappingMaskBlendMask: {r: 1, g: 0, b: 0, a: 0}
    - _UVMappingMaskEmissive: {r: 1, g: 0, b: 0, a: 0}
    - _WindColorMultiply: {r: 2, g: 2, b: 2, a: 0}
    - _WindNoisetilling: {r: 0.007, g: 0.007, b: 0, a: 0}
