%YAML 1.1
%TAG !u! tag:unity3d.com,2011:
--- !u!21 &2100000
Material:
  serializedVersion: 6
  m_ObjectHideFlags: 0
  m_CorrespondingSourceObject: {fileID: 0}
  m_PrefabInternal: {fileID: 0}
  m_Name: M_Unity_Snow_Grass_atlas_grass_01
  m_Shader: {fileID: 4800000, guid: 50461d4489451d944888a8a4bef3e799, type: 3}
  m_ShaderKeywords: _ALPHATEST_ON _METALLICGLOSSMAP _NORMALMAP
  m_LightmapFlags: 4
  m_EnableInstancingVariants: 1
  m_DoubleSidedGI: 0
  m_CustomRenderQueue: -1
  stringTagMap: {}
  disabledShaderPasses: []
  m_SavedProperties:
    serializedVersion: 3
    m_TexEnvs:
    - <noninit>:
        m_Texture: {fileID: 2800000, guid: 598363f0e238b3b468e4913735be50c1, type: 3}
        m_Scale: {x: 1, y: 1}
        m_Offset: {x: 0, y: 0}
    - _AmbientOcclusionG:
        m_Texture: {fileID: 2800000, guid: b18669044de00e44797de8883b9dc196, type: 3}
        m_Scale: {x: 1, y: 1}
        m_Offset: {x: 0, y: 0}
    - _BumpMap:
        m_Texture: {fileID: 2800000, guid: 8b8bce623babbd74ba46c696c16b6d11, type: 3}
        m_Scale: {x: 1, y: 1}
        m_Offset: {x: 0, y: 0}
    - _DetailAlbedoMap:
        m_Texture: {fileID: 0}
        m_Scale: {x: 1, y: 1}
        m_Offset: {x: 0, y: 0}
    - _DetailMask:
        m_Texture: {fileID: 0}
        m_Scale: {x: 1, y: 1}
        m_Offset: {x: 0, y: 0}
    - _DetailNormalMap:
        m_Texture: {fileID: 0}
        m_Scale: {x: 1, y: 1}
        m_Offset: {x: 0, y: 0}
    - _DetailTex:
        m_Texture: {fileID: 0}
        m_Scale: {x: 1, y: 1}
        m_Offset: {x: 0, y: 0}
    - _EmissionMap:
        m_Texture: {fileID: 0}
        m_Scale: {x: 1, y: 1}
        m_Offset: {x: 0, y: 0}
    - _GlossMap:
        m_Texture: {fileID: 0}
        m_Scale: {x: 1, y: 1}
        m_Offset: {x: 0, y: 0}
    - _MainTex:
        m_Texture: {fileID: 2800000, guid: e623705470e827245a486b56316bbba6, type: 3}
        m_Scale: {x: 1, y: 1}
        m_Offset: {x: 0, y: 0}
    - _MetallicGlossMap:
        m_Texture: {fileID: 2800000, guid: b18669044de00e44797de8883b9dc196, type: 3}
        m_Scale: {x: 1, y: 1}
        m_Offset: {x: 0, y: 0}
    - _OcclusionMap:
        m_Texture: {fileID: 2800000, guid: b18669044de00e44797de8883b9dc196, type: 3}
        m_Scale: {x: 1, y: 1}
        m_Offset: {x: 0, y: 0}
    - _ParallaxMap:
        m_Texture: {fileID: 0}
        m_Scale: {x: 1, y: 1}
        m_Offset: {x: 0, y: 0}
    - _ShadowOffset:
        m_Texture: {fileID: 0}
        m_Scale: {x: 1, y: 1}
        m_Offset: {x: 0, y: 0}
    - _SnowCover:
        m_Texture: {fileID: 2800000, guid: 61d722b8b3707b8489b91ed4af7c8918, type: 3}
        m_Scale: {x: 1, y: 1}
        m_Offset: {x: 0, y: 0}
    - _TranslucencyMap:
        m_Texture: {fileID: 0}
        m_Scale: {x: 1, y: 1}
        m_Offset: {x: 0, y: 0}
    - _WindNoise:
        m_Texture: {fileID: 2800000, guid: cdec882b86a6f9b46b4c79d6a9891f1c, type: 3}
        m_Scale: {x: 1, y: 1}
        m_Offset: {x: 0, y: 0}
    - _texcoord:
        m_Texture: {fileID: 0}
        m_Scale: {x: 1, y: 1}
        m_Offset: {x: 0, y: 0}
    m_Floats:
    - <noninit>: 1
    - _AmbientOcclusionPower: 1
    - _BackFaceMirrorNormal: 0
    - _BumpScale: 1
    - _ColorNoiseSpread: 15
    - _Cull: 2
    - _CullFarDistance: 5
    - _CullFarStart: 60
    - _Cutoff: 0.5
    - _DetailNormalMapScale: 1
    - _Drag: 7
    - _DstBlend: 0
    - _GlossMapScale: 1
    - _Glossiness: 0.5
    - _GlossyReflections: 1
    - _InitialBend: 5
    - _MaskClipValue: 0.2
    - _MaxWindbending: 0.58
    - _Metallic: 0
    - _MirrorNormal: 0
    - _Mode: 1
    - _NoiseWindSpeed: 0.85
    - _OcclusionStrength: 1
    - _Parallax: 0.02
    - _Shininess: 0.078125
    - _ShiverDirectionality: 0.7
    - _ShiverDrag: 0.02
    - _SmoothnessPower: 0.5
    - _SmoothnessTextureChannel: 0
    - _SnowColorBrightness: 0.84
    - _SnowMaxCover: 0.35
    - _SnowSpecularPower: 0.3
    - _Snow_Amount: 2
    - _Snow_Min_Height: -1000
    - _Snow_Min_Height_Blending: 100
    - _Specular: 0.137
    - _SpecularHighlights: 1
    - _SquashAmount: 1
    - _SrcBlend: 1
    - _Stiffness: 0.7
    - _TransAmbient: 0.2
    - _TransDirect: 1
    - _TransNormalDistortion: 0.1
    - _TransScattering: 2
    - _TransShadow: 0.9
    - _Translucency: 1
    - _UVSec: 0
    - _WindColorInfluence: 0
    - _WindColorThreshold: 0.3
    - _WindNoisePower: 3
    - _WindNormalInfluence: 0.2
    - _WindPowerDirectionX: -0.6
    - _WindPowerDirectionZ: -0.51
    - _WindQuality: 0
    - _Wind_VertexColorR: 0
    - _ZWrite: 1
    - __dirty: 0
    m_Colors:
    - <noninit>: {r: 1, g: 1, b: 1, a: 1}
    - _Color: {r: 1, g: 1, b: 1, a: 0}
    - _DryColor: {r: 0.7205882, g: 0.6836086, b: 0.60402244, a: 1}
    - _EmissionColor: {r: 0, g: 0, b: 0, a: 1}
    - _HealthyColor: {r: 0.8602941, g: 0.8792712, b: 0.8792712, a: 1}
    - _HueVariation: {r: 1, g: 0.5, b: 0, a: 0.1}
    - _NewNormal: {r: 1, g: 1.4, b: 1, a: 0}
    - _TreeInstanceColor: {r: 1, g: 1, b: 1, a: 1}
    - _TreeInstanceScale: {r: 1, g: 1, b: 1, a: 1}
    - _WindColorInfluence: {r: 0.5, g: 0.5, b: 0.5, a: 0}
    - _WindColorMultiply: {r: 1.4, g: 1.4, b: 1.4, a: 0}
    - _WindNoisetilling: {r: 0.007, g: 0.007, b: 0, a: 0}
