%YAML 1.1
%TAG !u! tag:unity3d.com,2011:
--- !u!114 &11400000
MonoBehaviour:
  m_ObjectHideFlags: 0
  m_CorrespondingSourceObject: {fileID: 0}
  m_PrefabInternal: {fileID: 0}
  m_GameObject: {fileID: 0}
  m_Enabled: 1
  m_EditorHideFlags: 0
  m_Script: {fileID: 11500000, guid: 37562b39ff933b245ac2f35d87edbcd6, type: 3}
  m_Name: BlendShape.Fun
  m_EditorClassIdentifier: 
  m_prefab: {fileID: 0}
  BlendShapeName: Fun
  Preset: 11
  Values:
  - RelativePath: Body
    Index: 22
    Weight: 100
  - RelativePath: Body
    Index: 25
    Weight: 50
  - RelativePath: Body
    Index: 27
    Weight: 100
  - RelativePath: Body
    Index: 38
    Weight: 80
  - RelativePath: Body
    Index: 52
    Weight: 100
  - RelativePath: Body
    Index: 53
    Weight: 100
  - RelativePath: Body
    Index: 182
    Weight: 70
  - RelativePath: Body
    Index: 188
    Weight: 50
  - RelativePath: Body
    Index: 189
    Weight: 50
  - RelativePath: Body
    Index: 190
    Weight: 10
  - RelativePath: Body
    Index: 191
    Weight: 10
  MaterialValues: []
