%YAML 1.1
%TAG !u! tag:unity3d.com,2011:
--- !u!114 &11400000
MonoBehaviour:
  m_ObjectHideFlags: 0
  m_CorrespondingSourceObject: {fileID: 0}
  m_PrefabInternal: {fileID: 0}
  m_GameObject: {fileID: 0}
  m_Enabled: 1
  m_EditorHideFlags: 0
  m_Script: {fileID: 11500000, guid: 37562b39ff933b245ac2f35d87edbcd6, type: 3}
  m_Name: BlendShape.Fun
  m_EditorClassIdentifier: 
  m_prefab: {fileID: 0}
  BlendShapeName: Fun
  Preset: 11
  Values:
  - RelativePath: nemumi
    Index: 10
    Weight: 100
  MaterialValues: []
